﻿[
    "USP-S",
    "GLOCK-18",
    "P2000",
    "P250",
    "DUAL BERETTAS",
    "CZ75-AUTO",
    "FIVE-SEVEN",
    "TEC-9",
    "DESERT EAGLE",
    "R8 REVOLVER",
    "MAC-10",
    "MP7",
    "MP9",
    "UMP-45",
    "PP-BIZON",
    "P90",
    "MAG-7",
    "NOVA",
    "SAWED-OFF",
    "XM1014",
    "GALIL AR",
    "FAMAS",
    "M4A1-S",
    "M4A4",
    "AK-47",
    "SSG 08",
    "AUG",
    "SG 553",
    "G3SG1",
    "SCAR-20",
    "AWP",
    "M249",
    "NEGEV",

    "BAYONET",
    "BOWIE KNIFE",
    "BUTTERFLY KNIFE",
    "FALCHION KNIFE",
    "FLIP KNIFE",
    "GUT KNIFE",
    "HUNTSMAN KNIFE",
    "KARAMBIT",
    "M9 BAYONET",
    "SHADOW DAGGERS",

    "BLOODHOUND GLOVES",
    "DRIVER GLOVES",
    "HAND WRAPS",
    "MOTO GLOVES",
    "SPECIALIST GLOVES",
    "SPORT GLOVES"
]