[
    {
        "vk_id": 30,
        "id": 4
    },
    {
        "vk_id": 21,
        "id": 8
    },
    {
        "vk_id": 22,
        "id": 12
    },
    {
        "vk_id": 23,
        "id": 16
    },
    {
        "vk_id": 26,
        "id": 20
    },
    {
        "vk_id": 27,
        "id": 28
    },
    {
        "vk_id": 28,
        "id": 32
    },
    {
        "vk_id": 6,
        "id": 51
    },
    {
        "vk_id": 19,
        "id": 36
    },
    {
        "vk_id": 20,
        "id": 40
    },
    {
        "vk_id": 5,
        "id": 31
    },
    {
        "vk_id": 31,
        "id": 44
    },
    {
        "vk_id": 34,
        "id": 48
    },
    {
        "vk_id": 32,
        "id": 50
    },
    {
        "vk_id": 33,
        "id": 52
    },
    {
        "vk_id": 3,
        "id": 112
    },
    {
        "vk_id": 36,
        "id": 56
    },
    {
        "vk_id": 35,
        "id": 84
    },
    {
        "vk_id": 37,
        "id": 204
    },
    {
        "vk_id": 47,
        "id": 64
    },
    {
        "vk_id": 40,
        "id": 68
    },
    {
        "vk_id": 41,
        "id": 70
    },
    {
        "vk_id": 42,
        "id": 72
    },
    {
        "vk_id": 43,
        "id": 76
    },
    {
        "vk_id": 44,
        "id": 96
    },
    {
        "vk_id": 39,
        "id": 100
    },
    {
        "vk_id": 45,
        "id": 854
    },
    {
        "vk_id": 46,
        "id": 108
    },
    {
        "vk_id": 91,
        "id": 116
    },
    {
        "vk_id": 92,
        "id": 120
    },
    {
        "vk_id": 10,
        "id": 124
    },
    {
        "vk_id": 90,
        "id": 132
    },
    {
        "vk_id": 213,
        "id": 140
    },
    {
        "vk_id": 214,
        "id": 148
    },
    {
        "vk_id": 216,
        "id": 152
    },
    {
        "vk_id": 97,
        "id": 156
    },
    {
        "vk_id": 98,
        "id": 170
    },
    {
        "vk_id": 99,
        "id": 174
    },
    {
        "vk_id": 100,
        "id": 178
    },
    {
        "vk_id": 101,
        "id": 180
    },
    {
        "vk_id": 102,
        "id": 188
    },
    {
        "vk_id": 103,
        "id": 384
    },
    {
        "vk_id": 212,
        "id": 191
    },
    {
        "vk_id": 104,
        "id": 192
    },
    {
        "vk_id": 95,
        "id": 196
    },
    {
        "vk_id": 215,
        "id": 203
    },
    {
        "vk_id": 73,
        "id": 208
    },
    {
        "vk_id": 231,
        "id": 262
    },
    {
        "vk_id": 74,
        "id": 212
    },
    {
        "vk_id": 75,
        "id": 214
    },
    {
        "vk_id": 221,
        "id": 218
    },
    {
        "vk_id": 76,
        "id": 818
    },
    {
        "vk_id": 166,
        "id": 222
    },
    {
        "vk_id": 222,
        "id": 226
    },
    {
        "vk_id": 223,
        "id": 232
    },
    {
        "vk_id": 14,
        "id": 233
    },
    {
        "vk_id": 224,
        "id": 231
    },
    {
        "vk_id": 205,
        "id": 242
    },
    {
        "vk_id": 207,
        "id": 246
    },
    {
        "vk_id": 209,
        "id": 250
    },
    {
        "vk_id": 56,
        "id": 266
    },
    {
        "vk_id": 59,
        "id": 270
    },
    {
        "vk_id": 7,
        "id": 268
    },
    {
        "vk_id": 65,
        "id": 276
    },
    {
        "vk_id": 60,
        "id": 288
    },
    {
        "vk_id": 71,
        "id": 300
    },
    {
        "vk_id": 69,
        "id": 308
    },
    {
        "vk_id": 62,
        "id": 320
    },
    {
        "vk_id": 63,
        "id": 324
    },
    {
        "vk_id": 64,
        "id": 624
    },
    {
        "vk_id": 58,
        "id": 328
    },
    {
        "vk_id": 57,
        "id": 332
    },
    {
        "vk_id": 67,
        "id": 340
    },
    {
        "vk_id": 50,
        "id": 348
    },
    {
        "vk_id": 86,
        "id": 352
    },
    {
        "vk_id": 80,
        "id": 356
    },
    {
        "vk_id": 81,
        "id": 360
    },
    {
        "vk_id": 84,
        "id": 364
    },
    {
        "vk_id": 83,
        "id": 368
    },
    {
        "vk_id": 85,
        "id": 372
    },
    {
        "vk_id": 8,
        "id": 376
    },
    {
        "vk_id": 88,
        "id": 380
    },
    {
        "vk_id": 228,
        "id": 388
    },
    {
        "vk_id": 229,
        "id": 392
    },
    {
        "vk_id": 82,
        "id": 400
    },
    {
        "vk_id": 4,
        "id": 398
    },
    {
        "vk_id": 94,
        "id": 404
    },
    {
        "vk_id": 96,
        "id": 296
    },
    {
        "vk_id": 173,
        "id": 408
    },
    {
        "vk_id": 226,
        "id": 410
    },
    {
        "vk_id": 105,
        "id": 414
    },
    {
        "vk_id": 11,
        "id": 417
    },
    {
        "vk_id": 12,
        "id": 428
    },
    {
        "vk_id": 109,
        "id": 422
    },
    {
        "vk_id": 107,
        "id": 426
    },
    {
        "vk_id": 108,
        "id": 430
    },
    {
        "vk_id": 110,
        "id": 434
    },
    {
        "vk_id": 111,
        "id": 438
    },
    {
        "vk_id": 13,
        "id": 440
    },
    {
        "vk_id": 112,
        "id": 442
    },
    {
        "vk_id": 117,
        "id": 807
    },
    {
        "vk_id": 115,
        "id": 450
    },
    {
        "vk_id": 118,
        "id": 454
    },
    {
        "vk_id": 119,
        "id": 458
    },
    {
        "vk_id": 121,
        "id": 462
    },
    {
        "vk_id": 120,
        "id": 466
    },
    {
        "vk_id": 122,
        "id": 470
    },
    {
        "vk_id": 125,
        "id": 584
    },
    {
        "vk_id": 114,
        "id": 478
    },
    {
        "vk_id": 113,
        "id": 480
    },
    {
        "vk_id": 126,
        "id": 484
    },
    {
        "vk_id": 127,
        "id": 583
    },
    {
        "vk_id": 15,
        "id": 498
    },
    {
        "vk_id": 129,
        "id": 492
    },
    {
        "vk_id": 130,
        "id": 496
    },
    {
        "vk_id": 230,
        "id": 499
    },
    {
        "vk_id": 123,
        "id": 504
    },
    {
        "vk_id": 128,
        "id": 508
    },
    {
        "vk_id": 132,
        "id": 104
    },
    {
        "vk_id": 133,
        "id": 516
    },
    {
        "vk_id": 134,
        "id": 520
    },
    {
        "vk_id": 135,
        "id": 524
    },
    {
        "vk_id": 139,
        "id": 528
    },
    {
        "vk_id": 142,
        "id": 554
    },
    {
        "vk_id": 140,
        "id": 558
    },
    {
        "vk_id": 136,
        "id": 562
    },
    {
        "vk_id": 137,
        "id": 566
    },
    {
        "vk_id": 144,
        "id": 578
    },
    {
        "vk_id": 146,
        "id": 512
    },
    {
        "vk_id": 152,
        "id": 586
    },
    {
        "vk_id": 153,
        "id": 585
    },
    {
        "vk_id": 155,
        "id": 591
    },
    {
        "vk_id": 156,
        "id": 598
    },
    {
        "vk_id": 157,
        "id": 600
    },
    {
        "vk_id": 158,
        "id": 604
    },
    {
        "vk_id": 206,
        "id": 608
    },
    {
        "vk_id": 160,
        "id": 616
    },
    {
        "vk_id": 161,
        "id": 620
    },
    {
        "vk_id": 93,
        "id": 634
    },
    {
        "vk_id": 165,
        "id": 642
    },
    {
        "vk_id": 1,
        "id": 643
    },
    {
        "vk_id": 164,
        "id": 646
    },
    {
        "vk_id": 178,
        "id": 659
    },
    {
        "vk_id": 179,
        "id": 662
    },
    {
        "vk_id": 177,
        "id": 670
    },
    {
        "vk_id": 168,
        "id": 674
    },
    {
        "vk_id": 169,
        "id": 678
    },
    {
        "vk_id": 170,
        "id": 682
    },
    {
        "vk_id": 176,
        "id": 686
    },
    {
        "vk_id": 181,
        "id": 688
    },
    {
        "vk_id": 175,
        "id": 690
    },
    {
        "vk_id": 190,
        "id": 694
    },
    {
        "vk_id": 182,
        "id": 702
    },
    {
        "vk_id": 184,
        "id": 703
    },
    {
        "vk_id": 185,
        "id": 705
    },
    {
        "vk_id": 186,
        "id": 90
    },
    {
        "vk_id": 187,
        "id": 706
    },
    {
        "vk_id": 227,
        "id": 710
    },
    {
        "vk_id": 232,
        "id": 728
    },
    {
        "vk_id": 87,
        "id": 724
    },
    {
        "vk_id": 220,
        "id": 144
    },
    {
        "vk_id": 188,
        "id": 729
    },
    {
        "vk_id": 189,
        "id": 740
    },
    {
        "vk_id": 171,
        "id": 748
    },
    {
        "vk_id": 218,
        "id": 752
    },
    {
        "vk_id": 217,
        "id": 756
    },
    {
        "vk_id": 183,
        "id": 760
    },
    {
        "vk_id": 192,
        "id": 158
    },
    {
        "vk_id": 16,
        "id": 762
    },
    {
        "vk_id": 193,
        "id": 834
    },
    {
        "vk_id": 191,
        "id": 764
    },
    {
        "vk_id": 54,
        "id": 626
    },
    {
        "vk_id": 194,
        "id": 768
    },
    {
        "vk_id": 196,
        "id": 776
    },
    {
        "vk_id": 197,
        "id": 780
    },
    {
        "vk_id": 199,
        "id": 788
    },
    {
        "vk_id": 200,
        "id": 792
    },
    {
        "vk_id": 17,
        "id": 795
    },
    {
        "vk_id": 198,
        "id": 798
    },
    {
        "vk_id": 201,
        "id": 800
    },
    {
        "vk_id": 2,
        "id": 804
    },
    {
        "vk_id": 145,
        "id": 784
    },
    {
        "vk_id": 49,
        "id": 826
    },
    {
        "vk_id": 9,
        "id": 840
    },
    {
        "vk_id": 203,
        "id": 858
    },
    {
        "vk_id": 18,
        "id": 860
    },
    {
        "vk_id": 48,
        "id": 548
    },
    {
        "vk_id": 51,
        "id": 862
    },
    {
        "vk_id": 55,
        "id": 704
    },
    {
        "vk_id": 89,
        "id": 887
    },
    {
        "vk_id": 77,
        "id": 894
    },
    {
        "vk_id": 79,
        "id": 716
    }
]