{
    "country.4": "Afghanistan",
    "country.8": "Albania",
    "country.16": "American Samoa",
    "country.20": "Andorra",
    "country.24": "Angola",
    "country.660": "Anguilla",
    "country.10": "Antarctica",
    "country.28": "Antigua and Barbuda",
    "country.32": "Argentina",
    "country.51": "Armenia",
    "country.533": "Aruba",
    "country.36": "Australia",
    "country.40": "Austria",
    "country.31": "Azerbaijan",
    "country.44": "Bahamas",
    "country.48": "Bahrain",
    "country.50": "Bangladesh",
    "country.52": "Barbados",
    "country.112": "Belarus",
    "country.56": "Belgium",
    "country.84": "Belize",
    "country.204": "Benin",
    "country.60": "Bermuda",
    "country.64": "Bhutan",
    "country.68": "Bolivia (Plurinational State of)",
    "country.535": "Bonaire, Sint Eustatius and Saba",
    "country.70": "Bosnia and Herzegovina",
    "country.72": "Botswana",
    "country.74": "Bouvet Island",
    "country.76": "Brazil",
    "country.86": "British Indian Ocean Territory",
    "country.96": "Brunei Darussalam",
    "country.100": "Bulgaria",
    "country.854": "Burkina Faso",
    "country.108": "Burundi",
    "country.116": "Cambodia",
    "country.120": "Cameroon",
    "country.124": "Canada",
    "country.132": "Cabo Verde",
    "country.136": "Cayman Islands",
    "country.140": "Central African Republic",
    "country.148": "Chad",
    "country.152": "Chile",
    "country.156": "China",
    "country.162": "Christmas Island",
    "country.166": "Cocos (Keeling) Islands",
    "country.170": "Colombia",
    "country.174": "Comoros",
    "country.178": "Congo",
    "country.180": "Congo (Democratic Republic of the)",
    "country.184": "Cook Islands",
    "country.188": "Costa Rica",
    "country.384": "Côte d'Ivoire",
    "country.191": "Croatia",
    "country.192": "Cuba",
    "country.531": "Curaçao",
    "country.196": "Cyprus",
    "country.203": "Czech Republic",
    "country.208": "Denmark",
    "country.262": "Djibouti",
    "country.212": "Dominica",
    "country.214": "Dominican Republic",
    "country.218": "Ecuador",
    "country.818": "Egypt",
    "country.222": "El Salvador",
    "country.226": "Equatorial Guinea",
    "country.232": "Eritrea",
    "country.233": "Estonia",
    "country.231": "Ethiopia",
    "country.238": "Falkland Islands (Malvinas)",
    "country.234": "Faroe Islands",
    "country.242": "Fiji",
    "country.246": "Finland",
    "country.250": "France",
    "country.254": "French Guiana",
    "country.258": "French Polynesia",
    "country.260": "French Southern Territories",
    "country.266": "Gabon",
    "country.270": "Gambia",
    "country.268": "Georgia",
    "country.276": "Germany",
    "country.288": "Ghana",
    "country.292": "Gibraltar",
    "country.300": "Greece",
    "country.304": "Greenland",
    "country.308": "Grenada",
    "country.312": "Guadeloupe",
    "country.316": "Guam",
    "country.320": "Guatemala",
    "country.831": "Guernsey",
    "country.324": "Guinea",
    "country.624": "Guinea-Bissau",
    "country.328": "Guyana",
    "country.332": "Haiti",
    "country.334": "Heard Island and McDonald Islands",
    "country.336": "Holy See",
    "country.340": "Honduras",
    "country.344": "Hong Kong",
    "country.348": "Hungary",
    "country.352": "Iceland",
    "country.356": "India",
    "country.360": "Indonesia",
    "country.368": "Iraq",
    "country.372": "Ireland",
    "country.833": "Isle of Man",
    "country.376": "Israel",
    "country.380": "Italy",
    "country.388": "Jamaica",
    "country.392": "Japan",
    "country.832": "Jersey",
    "country.400": "Jordan",
    "country.398": "Kazakhstan",
    "country.404": "Kenya",
    "country.296": "Kiribati",
    "country.408": "Korea (Democratic People's Republic of)",
    "country.410": "Korea (Republic of)",
    "country.414": "Kuwait",
    "country.417": "Kyrgyzstan",
    "country.418": "Lao People's Democratic Republic",
    "country.428": "Latvia",
    "country.422": "Lebanon",
    "country.426": "Lesotho",
    "country.430": "Liberia",
    "country.434": "Libya",
    "country.438": "Liechtenstein",
    "country.440": "Lithuania",
    "country.442": "Luxembourg",
    "country.446": "Macao",
    "country.807": "Macedonia (the former Yugoslav Republic of)",
    "country.450": "Madagascar",
    "country.454": "Malawi",
    "country.458": "Malaysia",
    "country.462": "Maldives",
    "country.466": "Mali",
    "country.470": "Malta",
    "country.584": "Marshall Islands",
    "country.474": "Martinique",
    "country.478": "Mauritania",
    "country.480": "Mauritius",
    "country.175": "Mayotte",
    "country.484": "Mexico",
    "country.583": "Micronesia (Federated States of)",
    "country.498": "Moldova (Republic of)",
    "country.492": "Monaco",
    "country.496": "Mongolia",
    "country.499": "Montenegro",
    "country.500": "Montserrat",
    "country.504": "Morocco",
    "country.508": "Mozambique",
    "country.104": "Myanmar",
    "country.516": "Namibia",
    "country.520": "Nauru",
    "country.524": "Nepal",
    "country.528": "Netherlands",
    "country.540": "New Caledonia",
    "country.554": "New Zealand",
    "country.558": "Nicaragua",
    "country.562": "Niger",
    "country.566": "Nigeria",
    "country.570": "Niue",
    "country.574": "Norfolk Island",
    "country.580": "Northern Mariana Islands",
    "country.578": "Norway",
    "country.512": "Oman",
    "country.586": "Pakistan",
    "country.585": "Palau",
    "country.275": "Palestine, State of",
    "country.591": "Panama",
    "country.598": "Papua New Guinea",
    "country.600": "Paraguay",
    "country.604": "Peru",
    "country.608": "Philippines",
    "country.612": "Pitcairn",
    "country.616": "Poland",
    "country.620": "Portugal",
    "country.630": "Puerto Rico",
    "country.634": "Qatar",
    "country.638": "Réunion",
    "country.642": "Romania",
    "country.643": "Russian Federation",
    "country.646": "Rwanda",
    "country.652": "Saint Barthélemy",
    "country.654": "Saint Helena, Ascension and Tristan da Cunha",
    "country.659": "Saint Kitts and Nevis",
    "country.662": "Saint Lucia",
    "country.663": "Saint Martin (French part)",
    "country.666": "Saint Pierre and Miquelon",
    "country.670": "Saint Vincent and the Grenadines",
    "country.882": "Samoa",
    "country.674": "San Marino",
    "country.678": "Sao Tome and Principe",
    "country.682": "Saudi Arabia",
    "country.686": "Senegal",
    "country.688": "Serbia",
    "country.690": "Seychelles",
    "country.694": "Sierra Leone",
    "country.702": "Singapore",
    "country.534": "Sint Maarten (Dutch part)",
    "country.703": "Slovakia",
    "country.705": "Slovenia",
    "country.90": "Solomon Islands",
    "country.706": "Somalia",
    "country.710": "South Africa",
    "country.239": "South Georgia and the South Sandwich Islands",
    "country.728": "South Sudan",
    "country.724": "Spain",
    "country.144": "Sri Lanka",
    "country.729": "Sudan",
    "country.740": "Suriname",
    "country.744": "Svalbard and Jan Mayen",
    "country.748": "Swaziland",
    "country.752": "Sweden",
    "country.756": "Switzerland",
    "country.760": "Syrian Arab Republic",
    "country.158": "Taiwan, Province of China",
    "country.762": "Tajikistan",
    "country.834": "Tanzania, United Republic of",
    "country.764": "Thailand",
    "country.626": "Timor-Leste",
    "country.768": "Togo",
    "country.772": "Tokelau",
    "country.776": "Tonga",
    "country.780": "Trinidad and Tobago",
    "country.788": "Tunisia",
    "country.792": "Turkey",
    "country.795": "Turkmenistan",
    "country.796": "Turks and Caicos Islands",
    "country.798": "Tuvalu",
    "country.800": "Uganda",
    "country.804": "Ukraine",
    "country.784": "United Arab Emirates",
    "country.826": "United Kingdom of Great Britain and Northern Ireland",
    "country.840": "United States of America",
    "country.581": "United States Minor Outlying Islands",
    "country.858": "Uruguay",
    "country.860": "Uzbekistan",
    "country.548": "Vanuatu",
    "country.862": "Venezuela (Bolivarian Republic of)",
    "country.704": "Viet Nam",
    "country.92": "Virgin Islands (British)",
    "country.850": "Virgin Islands (U.S.)",
    "country.876": "Wallis and Futuna",
    "country.732": "Western Sahara",
    "country.887": "Yemen",
    "country.894": "Zambia",
    "country.716": "Zimbabwe",
    "country.248": "Åland Islands",
    "country.12": "Algeria",
    "country.364": "Iran (Islamic Republic of)",
    "leaderboard_title": "Leader board",
    "money_transfer_title": "Transfer money to the country",
    "clicker_title": "Click on this area \n to earn money",
    "players_title": "Players"
}