<?xml version="1.0" encoding="iso-8859-1"?>
<!-- Generator: Adobe Illustrator 19.1.0, SVG Export Plug-In . SVG Version: 6.00 Build 0)  -->
<svg xmlns="http://www.w3.org/2000/svg" xmlns:xlink="http://www.w3.org/1999/xlink" version="1.1" id="Capa_1" x="0px" y="0px" viewBox="0 0 415.22 415.22" style="enable-background:new 0 0 415.22 415.22;" xml:space="preserve" width="512px" height="512px">
    <path d="M207.328,0.002c-5.149,0.074-10.238,2.229-13.875,5.875L10.172,189.158 c-3.701,3.703-5.856,8.906-5.856,14.141s2.154,10.438,5.856,14.141l54.937,54.968V395.22c0.001,5.236,2.156,10.439,5.858,14.142 c3.702,3.702,8.906,5.858,14.142,5.858h65c5.236,0,10.439-2.156,14.142-5.858c3.702-3.702,5.858-8.906,5.858-14.142v-145h75v145 c0.001,5.236,2.156,10.439,5.858,14.142c3.702,3.702,8.906,5.858,14.142,5.858h65c5.236,0,10.439-2.156,14.142-5.858 c3.702-3.702,5.858-8.906,5.858-14.142V272.377l54.938-54.938c3.701-3.703,5.856-8.906,5.856-14.141s-2.155-10.438-5.856-14.141 L221.766,5.877C217.997,2.098,212.665-0.072,207.328,0.002L207.328,0.002z"/>
</svg>
